[
    {
        "key": "group_58750ea545b16",
        "title": "Landing Page",
        "fields": [
            {
                "key": "field_58750ea93ba47",
                "label": "Add Content",
                "name": "add_content",
                "type": "relationship",
                "instructions": "",
                "required": 0,
                "conditional_logic": 0,
                "wrapper": {
                    "width": "",
                    "class": "",
                    "id": ""
                },
                "post_type": [
                    "page",
                    "post"
                ],
                "taxonomy": [],
                "filters": [
                    "search",
                    "post_type"
                ],
                "elements": "",
                "min": "",
                "max": "",
                "return_format": "object"
            }
        ],
        "location": [
            [
                {
                    "param": "page_template",
                    "operator": "==",
                    "value": "template-landing.php"
                }
            ]
        ],
        "menu_order": 0,
        "position": "normal",
        "style": "default",
        "label_placement": "top",
        "instruction_placement": "label",
        "hide_on_screen": "",
        "active": 1,
        "description": ""
    }
]